// Jest Snapshot v1, https://goo.gl/fbAQLP

exports[`index renders correctly 1`] = `
<section>
  <h1>
    MTG Deckcheck
  </h1>
   
  <h2>
    Please enter your deck here :
  </h2>
   
  <div>
    <textarea
      cols="30"
      name="currDeckListSubmit"
      rows="10"
    />
     
    <button>
      Submit
    </button>
  </div>
   
  <!---->
   
  <!---->
   
  <!---->
   
  <!---->
</section>
`;
